org\openjfx\listeners\LobbyHandler.class
org\openjfx\App$bulletModel.class
org\openjfx\listeners\ServerHandler.class
org\openjfx\App$1.class
org\openjfx\controller\GameController$3.class
org\openjfx\model\Model$2.class
org\openjfx\model\MapEditor.class
org\openjfx\App$playerModel.class
org\openjfx\controller\GameController$4.class
org\openjfx\listeners\ChatListener.class
org\openjfx\listeners\ClientHandler.class
org\openjfx\model\Model$1.class
